\relax 
\providecommand\hyper@newdestlabel[2]{}
\providecommand\HyperFirstAtBeginDocument{\AtBeginDocument}
\HyperFirstAtBeginDocument{\ifx\hyper@anchor\@undefined
\global\let\oldcontentsline\contentsline
\gdef\contentsline#1#2#3#4{\oldcontentsline{#1}{#2}{#3}}
\global\let\oldnewlabel\newlabel
\gdef\newlabel#1#2{\newlabelxx{#1}#2}
\gdef\newlabelxx#1#2#3#4#5#6{\oldnewlabel{#1}{{#2}{#3}}}
\AtEndDocument{\ifx\hyper@anchor\@undefined
\let\contentsline\oldcontentsline
\let\newlabel\oldnewlabel
\fi}
\fi}
\global\let\hyper@last\relax 
\gdef\HyperFirstAtBeginDocument#1{#1}
\providecommand\HyField@AuxAddToFields[1]{}
\providecommand\HyField@AuxAddToCoFields[2]{}
\bibstyle{biblatex}
\bibdata{int-note-blx,int-note,bibtex/bib/ATLAS,bibtex/bib/ConfNotes}
\citation{biblatex-control}
\providecommand \oddpage@label [2]{}
\@writefile{toc}{\boolfalse {citerequest}\boolfalse {citetracker}\boolfalse {pagetracker}\boolfalse {backtracker}\relax }
\@writefile{lof}{\boolfalse {citerequest}\boolfalse {citetracker}\boolfalse {pagetracker}\boolfalse {backtracker}\relax }
\@writefile{lot}{\boolfalse {citerequest}\boolfalse {citetracker}\boolfalse {pagetracker}\boolfalse {backtracker}\relax }
\select@language{UKenglish}
\@writefile{toc}{\defcounter {refsection}{0}\relax }\@writefile{toc}{\select@language{UKenglish}}
\@writefile{lof}{\defcounter {refsection}{0}\relax }\@writefile{lof}{\select@language{UKenglish}}
\@writefile{lot}{\defcounter {refsection}{0}\relax }\@writefile{lot}{\select@language{UKenglish}}
\@writefile{toc}{\contentsline {section}{\numberline {1}Introduction}{4}{section.1}}
\newlabel{sec:introduction}{{1}{4}{Introduction}{section.1}{}}
\newlabel{sec:introduction@cref}{{[section][1][]1}{4}}
\newlabel{eq:higgs_potential}{{1}{4}{Introduction}{equation.1.1}{}}
\newlabel{eq:higgs_potential@cref}{{[equation][1][]1}{4}}
\@writefile{lof}{\contentsline {figure}{\numberline {1}{\ignorespaces Representative diagrams that contribute to non-resonant $hh$ production. {\it  {Left}}: Diagram that is senstive to the $hhh$ coupling. {\it  {Right}}: Box diagram that interferes destructively with the $hhh$ coupling diagram.\relax }}{5}{figure.caption.2}}
\providecommand*\caption@xref[2]{\@setref\relax\@undefined{#1}}
\newlabel{fig:sm_nonres_hh}{{1}{5}{Representative diagrams that contribute to non-resonant $hh$ production. {\it {Left}}: Diagram that is senstive to the $hhh$ coupling. {\it {Right}}: Box diagram that interferes destructively with the $hhh$ coupling diagram.\relax }{figure.caption.2}{}}
\newlabel{fig:sm_nonres_hh@cref}{{[figure][1][]1}{5}}
\@writefile{lof}{\contentsline {figure}{\numberline {2}{\ignorespaces $h = $ SM, $H = $ BSM resonance\relax }}{5}{figure.caption.3}}
\newlabel{fig:dilepton_hh_wwbb}{{2}{5}{$h = $ SM, $H = $ BSM resonance\relax }{figure.caption.3}{}}
\newlabel{fig:dilepton_hh_wwbb@cref}{{[figure][2][]2}{5}}
\@writefile{toc}{\contentsline {section}{\numberline {2}Data and Simulation}{6}{section.2}}
\newlabel{sec:samples}{{2}{6}{Data and Simulation}{section.2}{}}
\newlabel{sec:samples@cref}{{[section][2][]2}{6}}
\@writefile{toc}{\contentsline {section}{\numberline {3}Object Definitions}{6}{section.3}}
\newlabel{sec:object_definitions}{{3}{6}{Object Definitions}{section.3}{}}
\newlabel{sec:object_definitions@cref}{{[section][3][]3}{6}}
\@writefile{lof}{\contentsline {figure}{\numberline {3}{\ignorespaces \relax }}{6}{figure.caption.4}}
\newlabel{fig:selection_flow}{{3}{6}{\relax }{figure.caption.4}{}}
\newlabel{fig:selection_flow@cref}{{[figure][3][]3}{6}}
\@writefile{toc}{\contentsline {subsection}{\numberline {3.1}Leptons}{7}{subsection.3.1}}
\newlabel{subsec:lepton_def}{{3.1}{7}{Leptons}{subsection.3.1}{}}
\newlabel{subsec:lepton_def@cref}{{[subsection][1][3]3.1}{7}}
\@writefile{toc}{\contentsline {subsubsection}{\numberline {3.1.1}Electrons}{7}{subsubsection.3.1.1}}
\newlabel{subsec:electron_def}{{3.1.1}{7}{Electrons}{subsubsection.3.1.1}{}}
\newlabel{subsec:electron_def@cref}{{[subsubsection][1][3,1]3.1.1}{7}}
\@writefile{lot}{\contentsline {table}{\numberline {1}{\ignorespaces Summary of electron definition for baseline and signal electrons used in the analysis.\relax }}{8}{table.caption.5}}
\newlabel{tab:electron_def}{{1}{8}{Summary of electron definition for baseline and signal electrons used in the analysis.\relax }{table.caption.5}{}}
\newlabel{tab:electron_def@cref}{{[table][1][]1}{8}}
\@writefile{toc}{\contentsline {subsubsection}{\numberline {3.1.2}Muons}{8}{subsubsection.3.1.2}}
\newlabel{subsec:muon_def}{{3.1.2}{8}{Muons}{subsubsection.3.1.2}{}}
\newlabel{subsec:muon_def@cref}{{[subsubsection][2][3,1]3.1.2}{8}}
\@writefile{lot}{\contentsline {table}{\numberline {2}{\ignorespaces Summary of muon definition for baseline and signal muons used in the analysis.\relax }}{8}{table.caption.6}}
\newlabel{tab:muon_def}{{2}{8}{Summary of muon definition for baseline and signal muons used in the analysis.\relax }{table.caption.6}{}}
\newlabel{tab:muon_def@cref}{{[table][2][]2}{8}}
\@writefile{toc}{\contentsline {subsection}{\numberline {3.2}Jets}{9}{subsection.3.2}}
\newlabel{subsec:jet_def}{{3.2}{9}{Jets}{subsection.3.2}{}}
\newlabel{subsec:jet_def@cref}{{[subsection][2][3]3.2}{9}}
\@writefile{lot}{\contentsline {table}{\numberline {3}{\ignorespaces Summary of baseline, signal, and signal $b-$jet definitions used in the analysis.\relax }}{9}{table.caption.7}}
\newlabel{tab:jet_def}{{3}{9}{Summary of baseline, signal, and signal $b-$jet definitions used in the analysis.\relax }{table.caption.7}{}}
\newlabel{tab:jet_def@cref}{{[table][3][]3}{9}}
\@writefile{toc}{\contentsline {subsection}{\numberline {3.3}Missing Transverse Momentum}{9}{subsection.3.3}}
\newlabel{subsec:met_def}{{3.3}{9}{Missing Transverse Momentum}{subsection.3.3}{}}
\newlabel{subsec:met_def@cref}{{[subsection][3][3]3.3}{9}}
\@writefile{toc}{\contentsline {subsection}{\numberline {3.4}Overlap Removal}{10}{subsection.3.4}}
\newlabel{subsec:overlap_removal}{{3.4}{10}{Overlap Removal}{subsection.3.4}{}}
\newlabel{subsec:overlap_removal@cref}{{[subsection][4][3]3.4}{10}}
\@writefile{toc}{\contentsline {section}{\numberline {4}Event Selection and Analysis Strategy}{10}{section.4}}
\newlabel{sec:selection_and_strategy}{{4}{10}{Event Selection and Analysis Strategy}{section.4}{}}
\newlabel{sec:selection_and_strategy@cref}{{[section][4][]4}{10}}
\@writefile{toc}{\contentsline {subsection}{\numberline {4.1}Event Topology}{11}{subsection.4.1}}
\@writefile{lof}{\contentsline {figure}{\numberline {4}{\ignorespaces {\it  {Left}}: Branching ratios of the Standard Model Higgs boson. {\it  {Right}}: Branching ratios of a $WW$ system (``lep-lep'': both $W$'s decay leptonically (excluding $\tau $ leptons), ``\{lep,tau\}-tau'': both $W$'s decay leptonically where at least one lepton is a $\tau $ lepton, ``lep-had'': one $W$ decays hadronically, the other leptonically ($e + \mu + \tau $), ``all-had'': both $W$'s decay hadronically). On the right we use the PDG listing for the $W$ boson branching ratios.\relax }}{11}{figure.caption.8}}
\newlabel{fig:higgs_br}{{4}{11}{{\it {Left}}: Branching ratios of the Standard Model Higgs boson. {\it {Right}}: Branching ratios of a $WW$ system (``lep-lep'': both $W$'s decay leptonically (excluding $\tau $ leptons), ``\{lep,tau\}-tau'': both $W$'s decay leptonically where at least one lepton is a $\tau $ lepton, ``lep-had'': one $W$ decays hadronically, the other leptonically ($e + \mu + \tau $), ``all-had'': both $W$'s decay hadronically). On the right we use the PDG listing for the $W$ boson branching ratios.\relax }{figure.caption.8}{}}
\newlabel{fig:higgs_br@cref}{{[figure][4][]4}{11}}
\@writefile{lof}{\contentsline {figure}{\numberline {5}{\ignorespaces $WWbb$ shapes. {\it  {Left}}: SM $t\bar {t}$ production. {\it  {Right}}: $hh\rightarrow WWbb$.\relax }}{12}{figure.caption.9}}
\newlabel{fig:topo}{{5}{12}{$WWbb$ shapes. {\it {Left}}: SM $t\bar {t}$ production. {\it {Right}}: $hh\rightarrow WWbb$.\relax }{figure.caption.9}{}}
\newlabel{fig:topo@cref}{{[figure][5][]5}{12}}
\@writefile{lof}{\contentsline {figure}{\numberline {6}{\ignorespaces {\it  {Left}}: $\Delta \phi $ between the two $b-$jets. {\it  {Right}}: $\Delta R$ between the two $b-$jets. The selection applied requires exactly 2 signal leptons, exactly 2 $b-$jets, dilepton invariant mass ($m_{\ell \ell }$) $>20$ GeV, and leading (sub-leading) lepton \ensuremath  {p_{\text  {T}}}\xspace  $>25$ ($>20$) GeV.\relax }}{13}{figure.caption.10}}
\newlabel{fig:shapes_bb}{{6}{13}{{\it {Left}}: $\Delta \phi $ between the two $b-$jets. {\it {Right}}: $\Delta R$ between the two $b-$jets. The selection applied requires exactly 2 signal leptons, exactly 2 $b-$jets, dilepton invariant mass ($m_{\ell \ell }$) $>20$ GeV, and leading (sub-leading) lepton \pT $>25$ ($>20$) GeV.\relax }{figure.caption.10}{}}
\newlabel{fig:shapes_bb@cref}{{[figure][6][]6}{13}}
\@writefile{lof}{\contentsline {figure}{\numberline {7}{\ignorespaces {\it  {Left, upper}}: $\Delta \phi $ between the two leptons. {\it  {Right, upper}}: $\Delta R$ between the two leptons. {\it  {Left, lower}}: \ensuremath  {E_{\text  {T}}^{\text  {miss}}}\xspace  . {\it  {Right, lower}}: $\Delta \phi $ between the \ensuremath  {E_{\text  {T}}^{\text  {miss}}}\xspace  and dilepton system. The selection applied requires exactly 2 signal leptons, exactly 2 $b-$jets, dilepton invariant mass ($m_{\ell \ell }$) $>20$ GeV, and leading (sub-leading) lepton \ensuremath  {p_{\text  {T}}}\xspace  $>25$ ($>20$) GeV.\relax }}{14}{figure.caption.11}}
\newlabel{fig:shapes_metll}{{7}{14}{{\it {Left, upper}}: $\Delta \phi $ between the two leptons. {\it {Right, upper}}: $\Delta R$ between the two leptons. {\it {Left, lower}}: \MET . {\it {Right, lower}}: $\Delta \phi $ between the \MET and dilepton system. The selection applied requires exactly 2 signal leptons, exactly 2 $b-$jets, dilepton invariant mass ($m_{\ell \ell }$) $>20$ GeV, and leading (sub-leading) lepton \pT $>25$ ($>20$) GeV.\relax }{figure.caption.11}{}}
\newlabel{fig:shapes_metll@cref}{{[figure][7][]7}{14}}
\@writefile{toc}{\contentsline {subsection}{\numberline {4.2}Kinematic Variables}{14}{subsection.4.2}}
\@writefile{toc}{\contentsline {paragraph}{\nonumberline \ensuremath  {H_{T2}^{R}}\xspace  }{14}{section*.12}}
\newlabel{sec:ht2ratio}{{4.2}{14}{\HTRatio }{section*.12}{}}
\newlabel{sec:ht2ratio@cref}{{[subsection][2][4]4.2}{14}}
\newlabel{eq:ht2ratio_def}{{2}{15}{\HTRatio }{equation.4.2}{}}
\newlabel{eq:ht2ratio_def@cref}{{[equation][2][]2}{15}}
\@writefile{lof}{\contentsline {figure}{\numberline {8}{\ignorespaces Normalized \ensuremath  {H_{T2}^{R}}\xspace  distribution for SM $t\bar {t}$ and $Wt$ production and resonant and non-resonant $hh$ production scenarios. The selection applied requires exactly 2 signal leptons, exactly 2 $b-$jets, dilepton invariant mass ($m_{\ell \ell }$) $>20$ GeV, and leading (sub-leading) lepton \ensuremath  {p_{\text  {T}}}\xspace  $>25$ ($>20$) GeV.\relax }}{16}{figure.caption.13}}
\newlabel{fig:shapes_HT2Ratio}{{8}{16}{Normalized \HTRatio distribution for SM $t\bar {t}$ and $Wt$ production and resonant and non-resonant $hh$ production scenarios. The selection applied requires exactly 2 signal leptons, exactly 2 $b-$jets, dilepton invariant mass ($m_{\ell \ell }$) $>20$ GeV, and leading (sub-leading) lepton \pT $>25$ ($>20$) GeV.\relax }{figure.caption.13}{}}
\newlabel{fig:shapes_HT2Ratio@cref}{{[figure][8][]8}{16}}
\@writefile{toc}{\contentsline {paragraph}{\nonumberline \ensuremath  {M_{T}}\xspace  }{16}{section*.14}}
\newlabel{sec:mt1}{{4.2}{16}{\MT }{section*.14}{}}
\newlabel{sec:mt1@cref}{{[subsection][2][4]4.2}{16}}
\newlabel{eq:mt1_def}{{3}{16}{\MT }{equation.4.3}{}}
\newlabel{eq:mt1_def@cref}{{[equation][3][]3}{16}}
\@writefile{lof}{\contentsline {figure}{\numberline {9}{\ignorespaces Normalized \ensuremath  {M_{T}}\xspace  distributions. {\it  {Left}}: \ensuremath  {M_{T}}\xspace  without the $b-$jet system energy and \ensuremath  {p_{\text  {T}}}\xspace  re-scaling. {\it  {Right}}: \ensuremath  {M_{T}}\xspace  with the $b-$jet system re-scaling. The selection applied requires exactly 2 signal leptons, exactly 2 $b-$jets, dilepton invariant mass ($m_{\ell \ell }$) $>20$ GeV, and leading (sub-leading) lepton \ensuremath  {p_{\text  {T}}}\xspace  $>25$ ($>20$) GeV.\relax }}{17}{figure.caption.15}}
\newlabel{fig:shapes_MT_1}{{9}{17}{Normalized \MT distributions. {\it {Left}}: \MT without the $b-$jet system energy and \pT re-scaling. {\it {Right}}: \MT with the $b-$jet system re-scaling. The selection applied requires exactly 2 signal leptons, exactly 2 $b-$jets, dilepton invariant mass ($m_{\ell \ell }$) $>20$ GeV, and leading (sub-leading) lepton \pT $>25$ ($>20$) GeV.\relax }{figure.caption.15}{}}
\newlabel{fig:shapes_MT_1@cref}{{[figure][9][]9}{17}}
\newlabel{eq:mt2_def}{{4}{17}{\MT }{equation.4.4}{}}
\newlabel{eq:mt2_def@cref}{{[equation][4][]4}{17}}
\newlabel{eq:mt_def}{{5}{18}{\MT }{equation.4.5}{}}
\newlabel{eq:mt_def@cref}{{[equation][5][]5}{18}}
\@writefile{toc}{\contentsline {paragraph}{\nonumberline \ensuremath  {m_{T2}^{bb}}\xspace  }{18}{section*.16}}
\newlabel{sec:mt2bb}{{4.2}{18}{\mtbb }{section*.16}{}}
\newlabel{sec:mt2bb@cref}{{[subsection][2][4]4.2}{18}}
\@writefile{lof}{\contentsline {figure}{\numberline {10}{\ignorespaces Normalized \ensuremath  {m_{T2}^{bb}}\xspace  distribution for SM $t\bar {t}$ and $Wt$ production and resonant and non-resonant $hh$ production scenarios. The selection applied requires exactly 2 signal leptons, exactly 2 $b-$jets, dilepton invariant mass ($m_{\ell \ell }$) $>20$ GeV, and leading (sub-leading) lepton \ensuremath  {p_{\text  {T}}}\xspace  $>25$ ($>20$) GeV.\relax }}{18}{figure.caption.17}}
\newlabel{fig:shape_mt2_bb}{{10}{18}{Normalized \mtbb distribution for SM $t\bar {t}$ and $Wt$ production and resonant and non-resonant $hh$ production scenarios. The selection applied requires exactly 2 signal leptons, exactly 2 $b-$jets, dilepton invariant mass ($m_{\ell \ell }$) $>20$ GeV, and leading (sub-leading) lepton \pT $>25$ ($>20$) GeV.\relax }{figure.caption.17}{}}
\newlabel{fig:shape_mt2_bb@cref}{{[figure][10][]10}{18}}
\@writefile{toc}{\contentsline {paragraph}{\nonumberline \ensuremath  {m_{T2}^{\ell \ell bb}}\xspace  }{19}{section*.18}}
\newlabel{sec:mt2llbb}{{4.2}{19}{\mtllbb }{section*.18}{}}
\newlabel{sec:mt2llbb@cref}{{[subsection][2][4]4.2}{19}}
\@writefile{lof}{\contentsline {figure}{\numberline {11}{\ignorespaces Normalized \ensuremath  {m_{T2}^{\ell \ell bb}}\xspace  distribution for SM $t\bar {t}$ and $Wt$ production and resonant and non-resonant $hh$ production scenarios. The selection applied requires exactly 2 signal leptons, exactly 2 $b-$jets, dilepton invariant mass ($m_{\ell \ell }$) $>20$ GeV, and leading (sub-leading) lepton \ensuremath  {p_{\text  {T}}}\xspace  $>25$ ($>20$) GeV.\relax }}{20}{figure.caption.19}}
\newlabel{fig:shape_mt2llbb}{{11}{20}{Normalized \mtllbb distribution for SM $t\bar {t}$ and $Wt$ production and resonant and non-resonant $hh$ production scenarios. The selection applied requires exactly 2 signal leptons, exactly 2 $b-$jets, dilepton invariant mass ($m_{\ell \ell }$) $>20$ GeV, and leading (sub-leading) lepton \pT $>25$ ($>20$) GeV.\relax }{figure.caption.19}{}}
\newlabel{fig:shape_mt2llbb@cref}{{[figure][11][]11}{20}}
\@writefile{toc}{\contentsline {section}{\numberline {5}Estimation of Standard Model Backgrounds}{20}{section.5}}
\newlabel{sec:background_estimation}{{5}{20}{Estimation of Standard Model Backgrounds}{section.5}{}}
\newlabel{sec:background_estimation@cref}{{[section][5][]5}{20}}
\@writefile{toc}{\contentsline {section}{\numberline {6}Systematic Uncertainties}{20}{section.6}}
\newlabel{sec:systematics}{{6}{20}{Systematic Uncertainties}{section.6}{}}
\newlabel{sec:systematics@cref}{{[section][6][]6}{20}}
